{
  "current_page": 1,
  "pages": 25,
  "total": 125,
  "addresses": [
    {
      "url": "http://ernest.openaddressesuk.org/addresses/1",
      "saon": {
        "name": null
      },
      "paon": {
        "name": 26
      },
      "street": {
        "name": "TEST ROAD",
        "geometry": {
          "type": "Point",
          "coordinates": [
            431620,
            430901
          ]
        }
      },
      "locality": {
        "name": null
      },
      "town": {
        "name": "LEEDS"
      },
      "postcode": {
        "name": "LS10 2RU",
        "geometry": {
          "type": "Point",
          "coordinates": [
            431574,
            430983
          ]
        }
      }
    },
    {
      "url": "http://ernest.openaddressesuk.org/addresses/1",
      "saon": {
        "name": null
      },
      "paon": {
        "name": 27
      },
      "street": {
        "name": "TEST ROAD",
        "geometry": {
          "type": "Point",
          "coordinates": [
            431620,
            430901
          ]
        }
      },
      "locality": {
        "name": null
      },
      "town": {
        "name": "LEEDS"
      },
      "postcode": {
        "name": "LS10 2RU",
        "geometry": {
          "type": "Point",
          "coordinates": [
            431574,
            430983
          ]
        }
      }
    },
    {
      "url": "http://ernest.openaddressesuk.org/addresses/1",
      "saon": {
        "name": null
      },
      "paon": {
        "name": 28
      },
      "street": {
        "name": "TEST ROAD",
        "geometry": {
          "type": "Point",
          "coordinates": [
            431620,
            430901
          ]
        }
      },
      "locality": {
        "name": null
      },
      "town": {
        "name": "LEEDS"
      },
      "postcode": {
        "name": "LS10 2RU",
        "geometry": {
          "type": "Point",
          "coordinates": [
            431574,
            430983
          ]
        }
      }
    },
    {
      "url": "http://ernest.openaddressesuk.org/addresses/1",
      "saon": {
        "name": null
      },
      "paon": {
        "name": 29
      },
      "street": {
        "name": "TEST ROAD",
        "geometry": {
          "type": "Point",
          "coordinates": [
            431620,
            430901
          ]
        }
      },
      "locality": {
        "name": null
      },
      "town": {
        "name": "LEEDS"
      },
      "postcode": {
        "name": "LS10 2RU",
        "geometry": {
          "type": "Point",
          "coordinates": [
            431574,
            430983
          ]
        }
      }
    },
    {
      "url": "http://ernest.openaddressesuk.org/addresses/1",
      "saon": {
        "name": null
      },
      "paon": {
        "name": 30
      },
      "street": {
        "name": "TEST ROAD",
        "geometry": {
          "type": "Point",
          "coordinates": [
            431620,
            430901
          ]
        }
      },
      "locality": {
        "name": null
      },
      "town": {
        "name": "LEEDS"
      },
      "postcode": {
        "name": "LS10 2RU",
        "geometry": {
          "type": "Point",
          "coordinates": [
            431574,
            430983
          ]
        }
      }
    },
    {
      "url": "http://ernest.openaddressesuk.org/addresses/1",
      "saon": {
        "name": null
      },
      "paon": {
        "name": 31
      },
      "street": {
        "name": "TEST ROAD",
        "geometry": {
          "type": "Point",
          "coordinates": [
            431620,
            430901
          ]
        }
      },
      "locality": {
        "name": null
      },
      "town": {
        "name": "LEEDS"
      },
      "postcode": {
        "name": "LS10 2RU",
        "geometry": {
          "type": "Point",
          "coordinates": [
            431574,
            430983
          ]
        }
      }
    },
    {
      "url": "http://ernest.openaddressesuk.org/addresses/1",
      "saon": {
        "name": null
      },
      "paon": {
        "name": 32
      },
      "street": {
        "name": "TEST ROAD",
        "geometry": {
          "type": "Point",
          "coordinates": [
            431620,
            430901
          ]
        }
      },
      "locality": {
        "name": null
      },
      "town": {
        "name": "LEEDS"
      },
      "postcode": {
        "name": "LS10 2RU",
        "geometry": {
          "type": "Point",
          "coordinates": [
            431574,
            430983
          ]
        }
      }
    },
    {
      "url": "http://ernest.openaddressesuk.org/addresses/1",
      "saon": {
        "name": null
      },
      "paon": {
        "name": 33
      },
      "street": {
        "name": "TEST ROAD",
        "geometry": {
          "type": "Point",
          "coordinates": [
            431620,
            430901
          ]
        }
      },
      "locality": {
        "name": null
      },
      "town": {
        "name": "LEEDS"
      },
      "postcode": {
        "name": "LS10 2RU",
        "geometry": {
          "type": "Point",
          "coordinates": [
            431574,
            430983
          ]
        }
      }
    },
    {
      "url": "http://ernest.openaddressesuk.org/addresses/1",
      "saon": {
        "name": null
      },
      "paon": {
        "name": 34
      },
      "street": {
        "name": "TEST ROAD",
        "geometry": {
          "type": "Point",
          "coordinates": [
            431620,
            430901
          ]
        }
      },
      "locality": {
        "name": null
      },
      "town": {
        "name": "LEEDS"
      },
      "postcode": {
        "name": "LS10 2RU",
        "geometry": {
          "type": "Point",
          "coordinates": [
            431574,
            430983
          ]
        }
      }
    },
    {
      "url": "http://ernest.openaddressesuk.org/addresses/1",
      "saon": {
        "name": null
      },
      "paon": {
        "name": 35
      },
      "street": {
        "name": "TEST ROAD",
        "geometry": {
          "type": "Point",
          "coordinates": [
            431620,
            430901
          ]
        }
      },
      "locality": {
        "name": null
      },
      "town": {
        "name": "LEEDS"
      },
      "postcode": {
        "name": "LS10 2RU",
        "geometry": {
          "type": "Point",
          "coordinates": [
            431574,
            430983
          ]
        }
      }
    },
    {
      "url": "http://ernest.openaddressesuk.org/addresses/1",
      "saon": {
        "name": null
      },
      "paon": {
        "name": 36
      },
      "street": {
        "name": "TEST ROAD",
        "geometry": {
          "type": "Point",
          "coordinates": [
            431620,
            430901
          ]
        }
      },
      "locality": {
        "name": null
      },
      "town": {
        "name": "LEEDS"
      },
      "postcode": {
        "name": "LS10 2RU",
        "geometry": {
          "type": "Point",
          "coordinates": [
            431574,
            430983
          ]
        }
      }
    },
    {
      "url": "http://ernest.openaddressesuk.org/addresses/1",
      "saon": {
        "name": null
      },
      "paon": {
        "name": 37
      },
      "street": {
        "name": "TEST ROAD",
        "geometry": {
          "type": "Point",
          "coordinates": [
            431620,
            430901
          ]
        }
      },
      "locality": {
        "name": null
      },
      "town": {
        "name": "LEEDS"
      },
      "postcode": {
        "name": "LS10 2RU",
        "geometry": {
          "type": "Point",
          "coordinates": [
            431574,
            430983
          ]
        }
      }
    },
    {
      "url": "http://ernest.openaddressesuk.org/addresses/1",
      "saon": {
        "name": null
      },
      "paon": {
        "name": 38
      },
      "street": {
        "name": "TEST ROAD",
        "geometry": {
          "type": "Point",
          "coordinates": [
            431620,
            430901
          ]
        }
      },
      "locality": {
        "name": null
      },
      "town": {
        "name": "LEEDS"
      },
      "postcode": {
        "name": "LS10 2RU",
        "geometry": {
          "type": "Point",
          "coordinates": [
            431574,
            430983
          ]
        }
      }
    },
    {
      "url": "http://ernest.openaddressesuk.org/addresses/1",
      "saon": {
        "name": null
      },
      "paon": {
        "name": 39
      },
      "street": {
        "name": "TEST ROAD",
        "geometry": {
          "type": "Point",
          "coordinates": [
            431620,
            430901
          ]
        }
      },
      "locality": {
        "name": null
      },
      "town": {
        "name": "LEEDS"
      },
      "postcode": {
        "name": "LS10 2RU",
        "geometry": {
          "type": "Point",
          "coordinates": [
            431574,
            430983
          ]
        }
      }
    },
    {
      "url": "http://ernest.openaddressesuk.org/addresses/1",
      "saon": {
        "name": null
      },
      "paon": {
        "name": 40
      },
      "street": {
        "name": "TEST ROAD",
        "geometry": {
          "type": "Point",
          "coordinates": [
            431620,
            430901
          ]
        }
      },
      "locality": {
        "name": null
      },
      "town": {
        "name": "LEEDS"
      },
      "postcode": {
        "name": "LS10 2RU",
        "geometry": {
          "type": "Point",
          "coordinates": [
            431574,
            430983
          ]
        }
      }
    },
    {
      "url": "http://ernest.openaddressesuk.org/addresses/1",
      "saon": {
        "name": null
      },
      "paon": {
        "name": 41
      },
      "street": {
        "name": "TEST ROAD",
        "geometry": {
          "type": "Point",
          "coordinates": [
            431620,
            430901
          ]
        }
      },
      "locality": {
        "name": null
      },
      "town": {
        "name": "LEEDS"
      },
      "postcode": {
        "name": "LS10 2RU",
        "geometry": {
          "type": "Point",
          "coordinates": [
            431574,
            430983
          ]
        }
      }
    },
    {
      "url": "http://ernest.openaddressesuk.org/addresses/1",
      "saon": {
        "name": null
      },
      "paon": {
        "name": 42
      },
      "street": {
        "name": "TEST ROAD",
        "geometry": {
          "type": "Point",
          "coordinates": [
            431620,
            430901
          ]
        }
      },
      "locality": {
        "name": null
      },
      "town": {
        "name": "LEEDS"
      },
      "postcode": {
        "name": "LS10 2RU",
        "geometry": {
          "type": "Point",
          "coordinates": [
            431574,
            430983
          ]
        }
      }
    },
    {
      "url": "http://ernest.openaddressesuk.org/addresses/1",
      "saon": {
        "name": null
      },
      "paon": {
        "name": 43
      },
      "street": {
        "name": "TEST ROAD",
        "geometry": {
          "type": "Point",
          "coordinates": [
            431620,
            430901
          ]
        }
      },
      "locality": {
        "name": null
      },
      "town": {
        "name": "LEEDS"
      },
      "postcode": {
        "name": "LS10 2RU",
        "geometry": {
          "type": "Point",
          "coordinates": [
            431574,
            430983
          ]
        }
      }
    },
    {
      "url": "http://ernest.openaddressesuk.org/addresses/1",
      "saon": {
        "name": null
      },
      "paon": {
        "name": 44
      },
      "street": {
        "name": "TEST ROAD",
        "geometry": {
          "type": "Point",
          "coordinates": [
            431620,
            430901
          ]
        }
      },
      "locality": {
        "name": null
      },
      "town": {
        "name": "LEEDS"
      },
      "postcode": {
        "name": "LS10 2RU",
        "geometry": {
          "type": "Point",
          "coordinates": [
            431574,
            430983
          ]
        }
      }
    },
    {
      "url": "http://ernest.openaddressesuk.org/addresses/1",
      "saon": {
        "name": null
      },
      "paon": {
        "name": 45
      },
      "street": {
        "name": "TEST ROAD",
        "geometry": {
          "type": "Point",
          "coordinates": [
            431620,
            430901
          ]
        }
      },
      "locality": {
        "name": null
      },
      "town": {
        "name": "LEEDS"
      },
      "postcode": {
        "name": "LS10 2RU",
        "geometry": {
          "type": "Point",
          "coordinates": [
            431574,
            430983
          ]
        }
      }
    },
    {
      "url": "http://ernest.openaddressesuk.org/addresses/1",
      "saon": {
        "name": null
      },
      "paon": {
        "name": 46
      },
      "street": {
        "name": "TEST ROAD",
        "geometry": {
          "type": "Point",
          "coordinates": [
            431620,
            430901
          ]
        }
      },
      "locality": {
        "name": null
      },
      "town": {
        "name": "LEEDS"
      },
      "postcode": {
        "name": "LS10 2RU",
        "geometry": {
          "type": "Point",
          "coordinates": [
            431574,
            430983
          ]
        }
      }
    },
    {
      "url": "http://ernest.openaddressesuk.org/addresses/1",
      "saon": {
        "name": null
      },
      "paon": {
        "name": 47
      },
      "street": {
        "name": "TEST ROAD",
        "geometry": {
          "type": "Point",
          "coordinates": [
            431620,
            430901
          ]
        }
      },
      "locality": {
        "name": null
      },
      "town": {
        "name": "LEEDS"
      },
      "postcode": {
        "name": "LS10 2RU",
        "geometry": {
          "type": "Point",
          "coordinates": [
            431574,
            430983
          ]
        }
      }
    },
    {
      "url": "http://ernest.openaddressesuk.org/addresses/1",
      "saon": {
        "name": null
      },
      "paon": {
        "name": 48
      },
      "street": {
        "name": "TEST ROAD",
        "geometry": {
          "type": "Point",
          "coordinates": [
            431620,
            430901
          ]
        }
      },
      "locality": {
        "name": null
      },
      "town": {
        "name": "LEEDS"
      },
      "postcode": {
        "name": "LS10 2RU",
        "geometry": {
          "type": "Point",
          "coordinates": [
            431574,
            430983
          ]
        }
      }
    },
    {
      "url": "http://ernest.openaddressesuk.org/addresses/1",
      "saon": {
        "name": null
      },
      "paon": {
        "name": 49
      },
      "street": {
        "name": "TEST ROAD",
        "geometry": {
          "type": "Point",
          "coordinates": [
            431620,
            430901
          ]
        }
      },
      "locality": {
        "name": null
      },
      "town": {
        "name": "LEEDS"
      },
      "postcode": {
        "name": "LS10 2RU",
        "geometry": {
          "type": "Point",
          "coordinates": [
            431574,
            430983
          ]
        }
      }
    },
    {
      "url": "http://ernest.openaddressesuk.org/addresses/1",
      "saon": {
        "name": null
      },
      "paon": {
        "name": 50
      },
      "street": {
        "name": "TEST ROAD",
        "geometry": {
          "type": "Point",
          "coordinates": [
            431620,
            430901
          ]
        }
      },
      "locality": {
        "name": null
      },
      "town": {
        "name": "LEEDS"
      },
      "postcode": {
        "name": "LS10 2RU",
        "geometry": {
          "type": "Point",
          "coordinates": [
            431574,
            430983
          ]
        }
      }
    }
  ]
}
