{
  "current_page": 4,
  "pages": 5,
  "total": 125,
  "addresses": [
    {
      "saon": {
        "name": null
      },
      "paon": {
        "name": 101
      },
      "street": {
        "name": "TEST ROAD",
        "geometry": {
          "type": "Point",
          "coordinates": [
            431620,
            430901
          ]
        }
      },
      "locality": {
        "name": null
      },
      "town": {
        "name": "LEEDS"
      },
      "postcode": {
        "name": "LS10 2RU",
        "geometry": {
          "type": "Point",
          "coordinates": [
            431574,
            430983
          ]
        }
      }
    },
    {
      "saon": {
        "name": null
      },
      "paon": {
        "name": 102
      },
      "street": {
        "name": "TEST ROAD",
        "geometry": {
          "type": "Point",
          "coordinates": [
            431620,
            430901
          ]
        }
      },
      "locality": {
        "name": null
      },
      "town": {
        "name": "LEEDS"
      },
      "postcode": {
        "name": "LS10 2RU",
        "geometry": {
          "type": "Point",
          "coordinates": [
            431574,
            430983
          ]
        }
      }
    },
    {
      "saon": {
        "name": null
      },
      "paon": {
        "name": 103
      },
      "street": {
        "name": "TEST ROAD",
        "geometry": {
          "type": "Point",
          "coordinates": [
            431620,
            430901
          ]
        }
      },
      "locality": {
        "name": null
      },
      "town": {
        "name": "LEEDS"
      },
      "postcode": {
        "name": "LS10 2RU",
        "geometry": {
          "type": "Point",
          "coordinates": [
            431574,
            430983
          ]
        }
      }
    },
    {
      "saon": {
        "name": null
      },
      "paon": {
        "name": 104
      },
      "street": {
        "name": "TEST ROAD",
        "geometry": {
          "type": "Point",
          "coordinates": [
            431620,
            430901
          ]
        }
      },
      "locality": {
        "name": null
      },
      "town": {
        "name": "LEEDS"
      },
      "postcode": {
        "name": "LS10 2RU",
        "geometry": {
          "type": "Point",
          "coordinates": [
            431574,
            430983
          ]
        }
      }
    },
    {
      "saon": {
        "name": null
      },
      "paon": {
        "name": 105
      },
      "street": {
        "name": "TEST ROAD",
        "geometry": {
          "type": "Point",
          "coordinates": [
            431620,
            430901
          ]
        }
      },
      "locality": {
        "name": null
      },
      "town": {
        "name": "LEEDS"
      },
      "postcode": {
        "name": "LS10 2RU",
        "geometry": {
          "type": "Point",
          "coordinates": [
            431574,
            430983
          ]
        }
      }
    },
    {
      "saon": {
        "name": null
      },
      "paon": {
        "name": 106
      },
      "street": {
        "name": "TEST ROAD",
        "geometry": {
          "type": "Point",
          "coordinates": [
            431620,
            430901
          ]
        }
      },
      "locality": {
        "name": null
      },
      "town": {
        "name": "LEEDS"
      },
      "postcode": {
        "name": "LS10 2RU",
        "geometry": {
          "type": "Point",
          "coordinates": [
            431574,
            430983
          ]
        }
      }
    },
    {
      "saon": {
        "name": null
      },
      "paon": {
        "name": 107
      },
      "street": {
        "name": "TEST ROAD",
        "geometry": {
          "type": "Point",
          "coordinates": [
            431620,
            430901
          ]
        }
      },
      "locality": {
        "name": null
      },
      "town": {
        "name": "LEEDS"
      },
      "postcode": {
        "name": "LS10 2RU",
        "geometry": {
          "type": "Point",
          "coordinates": [
            431574,
            430983
          ]
        }
      }
    },
    {
      "saon": {
        "name": null
      },
      "paon": {
        "name": 108
      },
      "street": {
        "name": "TEST ROAD",
        "geometry": {
          "type": "Point",
          "coordinates": [
            431620,
            430901
          ]
        }
      },
      "locality": {
        "name": null
      },
      "town": {
        "name": "LEEDS"
      },
      "postcode": {
        "name": "LS10 2RU",
        "geometry": {
          "type": "Point",
          "coordinates": [
            431574,
            430983
          ]
        }
      }
    },
    {
      "saon": {
        "name": null
      },
      "paon": {
        "name": 109
      },
      "street": {
        "name": "TEST ROAD",
        "geometry": {
          "type": "Point",
          "coordinates": [
            431620,
            430901
          ]
        }
      },
      "locality": {
        "name": null
      },
      "town": {
        "name": "LEEDS"
      },
      "postcode": {
        "name": "LS10 2RU",
        "geometry": {
          "type": "Point",
          "coordinates": [
            431574,
            430983
          ]
        }
      }
    },
    {
      "saon": {
        "name": null
      },
      "paon": {
        "name": 110
      },
      "street": {
        "name": "TEST ROAD",
        "geometry": {
          "type": "Point",
          "coordinates": [
            431620,
            430901
          ]
        }
      },
      "locality": {
        "name": null
      },
      "town": {
        "name": "LEEDS"
      },
      "postcode": {
        "name": "LS10 2RU",
        "geometry": {
          "type": "Point",
          "coordinates": [
            431574,
            430983
          ]
        }
      }
    },
    {
      "saon": {
        "name": null
      },
      "paon": {
        "name": 111
      },
      "street": {
        "name": "TEST ROAD",
        "geometry": {
          "type": "Point",
          "coordinates": [
            431620,
            430901
          ]
        }
      },
      "locality": {
        "name": null
      },
      "town": {
        "name": "LEEDS"
      },
      "postcode": {
        "name": "LS10 2RU",
        "geometry": {
          "type": "Point",
          "coordinates": [
            431574,
            430983
          ]
        }
      }
    },
    {
      "saon": {
        "name": null
      },
      "paon": {
        "name": 112
      },
      "street": {
        "name": "TEST ROAD",
        "geometry": {
          "type": "Point",
          "coordinates": [
            431620,
            430901
          ]
        }
      },
      "locality": {
        "name": null
      },
      "town": {
        "name": "LEEDS"
      },
      "postcode": {
        "name": "LS10 2RU",
        "geometry": {
          "type": "Point",
          "coordinates": [
            431574,
            430983
          ]
        }
      }
    },
    {
      "saon": {
        "name": null
      },
      "paon": {
        "name": 113
      },
      "street": {
        "name": "TEST ROAD",
        "geometry": {
          "type": "Point",
          "coordinates": [
            431620,
            430901
          ]
        }
      },
      "locality": {
        "name": null
      },
      "town": {
        "name": "LEEDS"
      },
      "postcode": {
        "name": "LS10 2RU",
        "geometry": {
          "type": "Point",
          "coordinates": [
            431574,
            430983
          ]
        }
      }
    },
    {
      "saon": {
        "name": null
      },
      "paon": {
        "name": 114
      },
      "street": {
        "name": "TEST ROAD",
        "geometry": {
          "type": "Point",
          "coordinates": [
            431620,
            430901
          ]
        }
      },
      "locality": {
        "name": null
      },
      "town": {
        "name": "LEEDS"
      },
      "postcode": {
        "name": "LS10 2RU",
        "geometry": {
          "type": "Point",
          "coordinates": [
            431574,
            430983
          ]
        }
      }
    },
    {
      "saon": {
        "name": null
      },
      "paon": {
        "name": 115
      },
      "street": {
        "name": "TEST ROAD",
        "geometry": {
          "type": "Point",
          "coordinates": [
            431620,
            430901
          ]
        }
      },
      "locality": {
        "name": null
      },
      "town": {
        "name": "LEEDS"
      },
      "postcode": {
        "name": "LS10 2RU",
        "geometry": {
          "type": "Point",
          "coordinates": [
            431574,
            430983
          ]
        }
      }
    },
    {
      "saon": {
        "name": null
      },
      "paon": {
        "name": 116
      },
      "street": {
        "name": "TEST ROAD",
        "geometry": {
          "type": "Point",
          "coordinates": [
            431620,
            430901
          ]
        }
      },
      "locality": {
        "name": null
      },
      "town": {
        "name": "LEEDS"
      },
      "postcode": {
        "name": "LS10 2RU",
        "geometry": {
          "type": "Point",
          "coordinates": [
            431574,
            430983
          ]
        }
      }
    },
    {
      "saon": {
        "name": null
      },
      "paon": {
        "name": 117
      },
      "street": {
        "name": "TEST ROAD",
        "geometry": {
          "type": "Point",
          "coordinates": [
            431620,
            430901
          ]
        }
      },
      "locality": {
        "name": null
      },
      "town": {
        "name": "LEEDS"
      },
      "postcode": {
        "name": "LS10 2RU",
        "geometry": {
          "type": "Point",
          "coordinates": [
            431574,
            430983
          ]
        }
      }
    },
    {
      "saon": {
        "name": null
      },
      "paon": {
        "name": 118
      },
      "street": {
        "name": "TEST ROAD",
        "geometry": {
          "type": "Point",
          "coordinates": [
            431620,
            430901
          ]
        }
      },
      "locality": {
        "name": null
      },
      "town": {
        "name": "LEEDS"
      },
      "postcode": {
        "name": "LS10 2RU",
        "geometry": {
          "type": "Point",
          "coordinates": [
            431574,
            430983
          ]
        }
      }
    },
    {
      "saon": {
        "name": null
      },
      "paon": {
        "name": 119
      },
      "street": {
        "name": "TEST ROAD",
        "geometry": {
          "type": "Point",
          "coordinates": [
            431620,
            430901
          ]
        }
      },
      "locality": {
        "name": null
      },
      "town": {
        "name": "LEEDS"
      },
      "postcode": {
        "name": "LS10 2RU",
        "geometry": {
          "type": "Point",
          "coordinates": [
            431574,
            430983
          ]
        }
      }
    },
    {
      "saon": {
        "name": null
      },
      "paon": {
        "name": 120
      },
      "street": {
        "name": "TEST ROAD",
        "geometry": {
          "type": "Point",
          "coordinates": [
            431620,
            430901
          ]
        }
      },
      "locality": {
        "name": null
      },
      "town": {
        "name": "LEEDS"
      },
      "postcode": {
        "name": "LS10 2RU",
        "geometry": {
          "type": "Point",
          "coordinates": [
            431574,
            430983
          ]
        }
      }
    },
    {
      "saon": {
        "name": null
      },
      "paon": {
        "name": 121
      },
      "street": {
        "name": "TEST ROAD",
        "geometry": {
          "type": "Point",
          "coordinates": [
            431620,
            430901
          ]
        }
      },
      "locality": {
        "name": null
      },
      "town": {
        "name": "LEEDS"
      },
      "postcode": {
        "name": "LS10 2RU",
        "geometry": {
          "type": "Point",
          "coordinates": [
            431574,
            430983
          ]
        }
      }
    },
    {
      "saon": {
        "name": null
      },
      "paon": {
        "name": 122
      },
      "street": {
        "name": "TEST ROAD",
        "geometry": {
          "type": "Point",
          "coordinates": [
            431620,
            430901
          ]
        }
      },
      "locality": {
        "name": null
      },
      "town": {
        "name": "LEEDS"
      },
      "postcode": {
        "name": "LS10 2RU",
        "geometry": {
          "type": "Point",
          "coordinates": [
            431574,
            430983
          ]
        }
      }
    },
    {
      "saon": {
        "name": null
      },
      "paon": {
        "name": 123
      },
      "street": {
        "name": "TEST ROAD",
        "geometry": {
          "type": "Point",
          "coordinates": [
            431620,
            430901
          ]
        }
      },
      "locality": {
        "name": null
      },
      "town": {
        "name": "LEEDS"
      },
      "postcode": {
        "name": "LS10 2RU",
        "geometry": {
          "type": "Point",
          "coordinates": [
            431574,
            430983
          ]
        }
      }
    },
    {
      "saon": {
        "name": null
      },
      "paon": {
        "name": 124
      },
      "street": {
        "name": "TEST ROAD",
        "geometry": {
          "type": "Point",
          "coordinates": [
            431620,
            430901
          ]
        }
      },
      "locality": {
        "name": null
      },
      "town": {
        "name": "LEEDS"
      },
      "postcode": {
        "name": "LS10 2RU",
        "geometry": {
          "type": "Point",
          "coordinates": [
            431574,
            430983
          ]
        }
      }
    },
    {
      "saon": {
        "name": null
      },
      "paon": {
        "name": 125
      },
      "street": {
        "name": "TEST ROAD",
        "geometry": {
          "type": "Point",
          "coordinates": [
            431620,
            430901
          ]
        }
      },
      "locality": {
        "name": null
      },
      "town": {
        "name": "LEEDS"
      },
      "postcode": {
        "name": "LS10 2RU",
        "geometry": {
          "type": "Point",
          "coordinates": [
            431574,
            430983
          ]
        }
      }
    }
  ]
}