{
  "current_page": 3,
  "pages": 5,
  "total": 125,
  "addresses": [
    {
      "url": "http://ernest.openaddressesuk.org/addresses/1",
      "saon": {
        "name": null
      },
      "paon": {
        "name": 76
      },
      "street": {
        "name": "TEST ROAD",
        "geometry": {
          "type": "Point",
          "coordinates": [
            431620,
            430901
          ]
        }
      },
      "locality": {
        "name": null
      },
      "town": {
        "name": "LEEDS"
      },
      "postcode": {
        "name": "LS10 2RU",
        "geometry": {
          "type": "Point",
          "coordinates": [
            431574,
            430983
          ]
        }
      }
    },
    {
      "url": "http://ernest.openaddressesuk.org/addresses/1",
      "saon": {
        "name": null
      },
      "paon": {
        "name": 77
      },
      "street": {
        "name": "TEST ROAD",
        "geometry": {
          "type": "Point",
          "coordinates": [
            431620,
            430901
          ]
        }
      },
      "locality": {
        "name": null
      },
      "town": {
        "name": "LEEDS"
      },
      "postcode": {
        "name": "LS10 2RU",
        "geometry": {
          "type": "Point",
          "coordinates": [
            431574,
            430983
          ]
        }
      }
    },
    {
      "url": "http://ernest.openaddressesuk.org/addresses/1",
      "saon": {
        "name": null
      },
      "paon": {
        "name": 78
      },
      "street": {
        "name": "TEST ROAD",
        "geometry": {
          "type": "Point",
          "coordinates": [
            431620,
            430901
          ]
        }
      },
      "locality": {
        "name": null
      },
      "town": {
        "name": "LEEDS"
      },
      "postcode": {
        "name": "LS10 2RU",
        "geometry": {
          "type": "Point",
          "coordinates": [
            431574,
            430983
          ]
        }
      }
    },
    {
      "url": "http://ernest.openaddressesuk.org/addresses/1",
      "saon": {
        "name": null
      },
      "paon": {
        "name": 79
      },
      "street": {
        "name": "TEST ROAD",
        "geometry": {
          "type": "Point",
          "coordinates": [
            431620,
            430901
          ]
        }
      },
      "locality": {
        "name": null
      },
      "town": {
        "name": "LEEDS"
      },
      "postcode": {
        "name": "LS10 2RU",
        "geometry": {
          "type": "Point",
          "coordinates": [
            431574,
            430983
          ]
        }
      }
    },
    {
      "url": "http://ernest.openaddressesuk.org/addresses/1",
      "saon": {
        "name": null
      },
      "paon": {
        "name": 80
      },
      "street": {
        "name": "TEST ROAD",
        "geometry": {
          "type": "Point",
          "coordinates": [
            431620,
            430901
          ]
        }
      },
      "locality": {
        "name": null
      },
      "town": {
        "name": "LEEDS"
      },
      "postcode": {
        "name": "LS10 2RU",
        "geometry": {
          "type": "Point",
          "coordinates": [
            431574,
            430983
          ]
        }
      }
    },
    {
      "url": "http://ernest.openaddressesuk.org/addresses/1",
      "saon": {
        "name": null
      },
      "paon": {
        "name": 81
      },
      "street": {
        "name": "TEST ROAD",
        "geometry": {
          "type": "Point",
          "coordinates": [
            431620,
            430901
          ]
        }
      },
      "locality": {
        "name": null
      },
      "town": {
        "name": "LEEDS"
      },
      "postcode": {
        "name": "LS10 2RU",
        "geometry": {
          "type": "Point",
          "coordinates": [
            431574,
            430983
          ]
        }
      }
    },
    {
      "url": "http://ernest.openaddressesuk.org/addresses/1",
      "saon": {
        "name": null
      },
      "paon": {
        "name": 82
      },
      "street": {
        "name": "TEST ROAD",
        "geometry": {
          "type": "Point",
          "coordinates": [
            431620,
            430901
          ]
        }
      },
      "locality": {
        "name": null
      },
      "town": {
        "name": "LEEDS"
      },
      "postcode": {
        "name": "LS10 2RU",
        "geometry": {
          "type": "Point",
          "coordinates": [
            431574,
            430983
          ]
        }
      }
    },
    {
      "url": "http://ernest.openaddressesuk.org/addresses/1",
      "saon": {
        "name": null
      },
      "paon": {
        "name": 83
      },
      "street": {
        "name": "TEST ROAD",
        "geometry": {
          "type": "Point",
          "coordinates": [
            431620,
            430901
          ]
        }
      },
      "locality": {
        "name": null
      },
      "town": {
        "name": "LEEDS"
      },
      "postcode": {
        "name": "LS10 2RU",
        "geometry": {
          "type": "Point",
          "coordinates": [
            431574,
            430983
          ]
        }
      }
    },
    {
      "url": "http://ernest.openaddressesuk.org/addresses/1",
      "saon": {
        "name": null
      },
      "paon": {
        "name": 84
      },
      "street": {
        "name": "TEST ROAD",
        "geometry": {
          "type": "Point",
          "coordinates": [
            431620,
            430901
          ]
        }
      },
      "locality": {
        "name": null
      },
      "town": {
        "name": "LEEDS"
      },
      "postcode": {
        "name": "LS10 2RU",
        "geometry": {
          "type": "Point",
          "coordinates": [
            431574,
            430983
          ]
        }
      }
    },
    {
      "url": "http://ernest.openaddressesuk.org/addresses/1",
      "saon": {
        "name": null
      },
      "paon": {
        "name": 85
      },
      "street": {
        "name": "TEST ROAD",
        "geometry": {
          "type": "Point",
          "coordinates": [
            431620,
            430901
          ]
        }
      },
      "locality": {
        "name": null
      },
      "town": {
        "name": "LEEDS"
      },
      "postcode": {
        "name": "LS10 2RU",
        "geometry": {
          "type": "Point",
          "coordinates": [
            431574,
            430983
          ]
        }
      }
    },
    {
      "url": "http://ernest.openaddressesuk.org/addresses/1",
      "saon": {
        "name": null
      },
      "paon": {
        "name": 86
      },
      "street": {
        "name": "TEST ROAD",
        "geometry": {
          "type": "Point",
          "coordinates": [
            431620,
            430901
          ]
        }
      },
      "locality": {
        "name": null
      },
      "town": {
        "name": "LEEDS"
      },
      "postcode": {
        "name": "LS10 2RU",
        "geometry": {
          "type": "Point",
          "coordinates": [
            431574,
            430983
          ]
        }
      }
    },
    {
      "url": "http://ernest.openaddressesuk.org/addresses/1",
      "saon": {
        "name": null
      },
      "paon": {
        "name": 87
      },
      "street": {
        "name": "TEST ROAD",
        "geometry": {
          "type": "Point",
          "coordinates": [
            431620,
            430901
          ]
        }
      },
      "locality": {
        "name": null
      },
      "town": {
        "name": "LEEDS"
      },
      "postcode": {
        "name": "LS10 2RU",
        "geometry": {
          "type": "Point",
          "coordinates": [
            431574,
            430983
          ]
        }
      }
    },
    {
      "url": "http://ernest.openaddressesuk.org/addresses/1",
      "saon": {
        "name": null
      },
      "paon": {
        "name": 88
      },
      "street": {
        "name": "TEST ROAD",
        "geometry": {
          "type": "Point",
          "coordinates": [
            431620,
            430901
          ]
        }
      },
      "locality": {
        "name": null
      },
      "town": {
        "name": "LEEDS"
      },
      "postcode": {
        "name": "LS10 2RU",
        "geometry": {
          "type": "Point",
          "coordinates": [
            431574,
            430983
          ]
        }
      }
    },
    {
      "url": "http://ernest.openaddressesuk.org/addresses/1",
      "saon": {
        "name": null
      },
      "paon": {
        "name": 89
      },
      "street": {
        "name": "TEST ROAD",
        "geometry": {
          "type": "Point",
          "coordinates": [
            431620,
            430901
          ]
        }
      },
      "locality": {
        "name": null
      },
      "town": {
        "name": "LEEDS"
      },
      "postcode": {
        "name": "LS10 2RU",
        "geometry": {
          "type": "Point",
          "coordinates": [
            431574,
            430983
          ]
        }
      }
    },
    {
      "url": "http://ernest.openaddressesuk.org/addresses/1",
      "saon": {
        "name": null
      },
      "paon": {
        "name": 90
      },
      "street": {
        "name": "TEST ROAD",
        "geometry": {
          "type": "Point",
          "coordinates": [
            431620,
            430901
          ]
        }
      },
      "locality": {
        "name": null
      },
      "town": {
        "name": "LEEDS"
      },
      "postcode": {
        "name": "LS10 2RU",
        "geometry": {
          "type": "Point",
          "coordinates": [
            431574,
            430983
          ]
        }
      }
    },
    {
      "url": "http://ernest.openaddressesuk.org/addresses/1",
      "saon": {
        "name": null
      },
      "paon": {
        "name": 91
      },
      "street": {
        "name": "TEST ROAD",
        "geometry": {
          "type": "Point",
          "coordinates": [
            431620,
            430901
          ]
        }
      },
      "locality": {
        "name": null
      },
      "town": {
        "name": "LEEDS"
      },
      "postcode": {
        "name": "LS10 2RU",
        "geometry": {
          "type": "Point",
          "coordinates": [
            431574,
            430983
          ]
        }
      }
    },
    {
      "url": "http://ernest.openaddressesuk.org/addresses/1",
      "saon": {
        "name": null
      },
      "paon": {
        "name": 92
      },
      "street": {
        "name": "TEST ROAD",
        "geometry": {
          "type": "Point",
          "coordinates": [
            431620,
            430901
          ]
        }
      },
      "locality": {
        "name": null
      },
      "town": {
        "name": "LEEDS"
      },
      "postcode": {
        "name": "LS10 2RU",
        "geometry": {
          "type": "Point",
          "coordinates": [
            431574,
            430983
          ]
        }
      }
    },
    {
      "url": "http://ernest.openaddressesuk.org/addresses/1",
      "saon": {
        "name": null
      },
      "paon": {
        "name": 93
      },
      "street": {
        "name": "TEST ROAD",
        "geometry": {
          "type": "Point",
          "coordinates": [
            431620,
            430901
          ]
        }
      },
      "locality": {
        "name": null
      },
      "town": {
        "name": "LEEDS"
      },
      "postcode": {
        "name": "LS10 2RU",
        "geometry": {
          "type": "Point",
          "coordinates": [
            431574,
            430983
          ]
        }
      }
    },
    {
      "url": "http://ernest.openaddressesuk.org/addresses/1",
      "saon": {
        "name": null
      },
      "paon": {
        "name": 94
      },
      "street": {
        "name": "TEST ROAD",
        "geometry": {
          "type": "Point",
          "coordinates": [
            431620,
            430901
          ]
        }
      },
      "locality": {
        "name": null
      },
      "town": {
        "name": "LEEDS"
      },
      "postcode": {
        "name": "LS10 2RU",
        "geometry": {
          "type": "Point",
          "coordinates": [
            431574,
            430983
          ]
        }
      }
    },
    {
      "url": "http://ernest.openaddressesuk.org/addresses/1",
      "saon": {
        "name": null
      },
      "paon": {
        "name": 95
      },
      "street": {
        "name": "TEST ROAD",
        "geometry": {
          "type": "Point",
          "coordinates": [
            431620,
            430901
          ]
        }
      },
      "locality": {
        "name": null
      },
      "town": {
        "name": "LEEDS"
      },
      "postcode": {
        "name": "LS10 2RU",
        "geometry": {
          "type": "Point",
          "coordinates": [
            431574,
            430983
          ]
        }
      }
    },
    {
      "url": "http://ernest.openaddressesuk.org/addresses/1",
      "saon": {
        "name": null
      },
      "paon": {
        "name": 96
      },
      "street": {
        "name": "TEST ROAD",
        "geometry": {
          "type": "Point",
          "coordinates": [
            431620,
            430901
          ]
        }
      },
      "locality": {
        "name": null
      },
      "town": {
        "name": "LEEDS"
      },
      "postcode": {
        "name": "LS10 2RU",
        "geometry": {
          "type": "Point",
          "coordinates": [
            431574,
            430983
          ]
        }
      }
    },
    {
      "url": "http://ernest.openaddressesuk.org/addresses/1",
      "saon": {
        "name": null
      },
      "paon": {
        "name": 97
      },
      "street": {
        "name": "TEST ROAD",
        "geometry": {
          "type": "Point",
          "coordinates": [
            431620,
            430901
          ]
        }
      },
      "locality": {
        "name": null
      },
      "town": {
        "name": "LEEDS"
      },
      "postcode": {
        "name": "LS10 2RU",
        "geometry": {
          "type": "Point",
          "coordinates": [
            431574,
            430983
          ]
        }
      }
    },
    {
      "url": "http://ernest.openaddressesuk.org/addresses/1",
      "saon": {
        "name": null
      },
      "paon": {
        "name": 98
      },
      "street": {
        "name": "TEST ROAD",
        "geometry": {
          "type": "Point",
          "coordinates": [
            431620,
            430901
          ]
        }
      },
      "locality": {
        "name": null
      },
      "town": {
        "name": "LEEDS"
      },
      "postcode": {
        "name": "LS10 2RU",
        "geometry": {
          "type": "Point",
          "coordinates": [
            431574,
            430983
          ]
        }
      }
    },
    {
      "url": "http://ernest.openaddressesuk.org/addresses/1",
      "saon": {
        "name": null
      },
      "paon": {
        "name": 99
      },
      "street": {
        "name": "TEST ROAD",
        "geometry": {
          "type": "Point",
          "coordinates": [
            431620,
            430901
          ]
        }
      },
      "locality": {
        "name": null
      },
      "town": {
        "name": "LEEDS"
      },
      "postcode": {
        "name": "LS10 2RU",
        "geometry": {
          "type": "Point",
          "coordinates": [
            431574,
            430983
          ]
        }
      }
    },
    {
      "url": "http://ernest.openaddressesuk.org/addresses/1",
      "saon": {
        "name": null
      },
      "paon": {
        "name": 100
      },
      "street": {
        "name": "TEST ROAD",
        "geometry": {
          "type": "Point",
          "coordinates": [
            431620,
            430901
          ]
        }
      },
      "locality": {
        "name": null
      },
      "town": {
        "name": "LEEDS"
      },
      "postcode": {
        "name": "LS10 2RU",
        "geometry": {
          "type": "Point",
          "coordinates": [
            431574,
            430983
          ]
        }
      }
    }
  ]
}
