{
  "current_page": 5,
  "pages": 5,
  "total": 125,
  "addresses": [
    {
      "saon": {
        "name": null
      },
      "paon": {
        "name": 126
      },
      "street": {
        "name": "TEST ROAD",
        "geometry": {
          "type": "Point",
          "coordinates": [
            431620,
            430901
          ]
        }
      },
      "locality": {
        "name": null
      },
      "town": {
        "name": "LEEDS"
      },
      "postcode": {
        "name": "LS10 2RU",
        "geometry": {
          "type": "Point",
          "coordinates": [
            431574,
            430983
          ]
        }
      }
    },
    {
      "saon": {
        "name": null
      },
      "paon": {
        "name": 127
      },
      "street": {
        "name": "TEST ROAD",
        "geometry": {
          "type": "Point",
          "coordinates": [
            431620,
            430901
          ]
        }
      },
      "locality": {
        "name": null
      },
      "town": {
        "name": "LEEDS"
      },
      "postcode": {
        "name": "LS10 2RU",
        "geometry": {
          "type": "Point",
          "coordinates": [
            431574,
            430983
          ]
        }
      }
    },
    {
      "saon": {
        "name": null
      },
      "paon": {
        "name": 128
      },
      "street": {
        "name": "TEST ROAD",
        "geometry": {
          "type": "Point",
          "coordinates": [
            431620,
            430901
          ]
        }
      },
      "locality": {
        "name": null
      },
      "town": {
        "name": "LEEDS"
      },
      "postcode": {
        "name": "LS10 2RU",
        "geometry": {
          "type": "Point",
          "coordinates": [
            431574,
            430983
          ]
        }
      }
    },
    {
      "saon": {
        "name": null
      },
      "paon": {
        "name": 129
      },
      "street": {
        "name": "TEST ROAD",
        "geometry": {
          "type": "Point",
          "coordinates": [
            431620,
            430901
          ]
        }
      },
      "locality": {
        "name": null
      },
      "town": {
        "name": "LEEDS"
      },
      "postcode": {
        "name": "LS10 2RU",
        "geometry": {
          "type": "Point",
          "coordinates": [
            431574,
            430983
          ]
        }
      }
    },
    {
      "saon": {
        "name": null
      },
      "paon": {
        "name": 130
      },
      "street": {
        "name": "TEST ROAD",
        "geometry": {
          "type": "Point",
          "coordinates": [
            431620,
            430901
          ]
        }
      },
      "locality": {
        "name": null
      },
      "town": {
        "name": "LEEDS"
      },
      "postcode": {
        "name": "LS10 2RU",
        "geometry": {
          "type": "Point",
          "coordinates": [
            431574,
            430983
          ]
        }
      }
    },
    {
      "saon": {
        "name": null
      },
      "paon": {
        "name": 131
      },
      "street": {
        "name": "TEST ROAD",
        "geometry": {
          "type": "Point",
          "coordinates": [
            431620,
            430901
          ]
        }
      },
      "locality": {
        "name": null
      },
      "town": {
        "name": "LEEDS"
      },
      "postcode": {
        "name": "LS10 2RU",
        "geometry": {
          "type": "Point",
          "coordinates": [
            431574,
            430983
          ]
        }
      }
    },
    {
      "saon": {
        "name": null
      },
      "paon": {
        "name": 132
      },
      "street": {
        "name": "TEST ROAD",
        "geometry": {
          "type": "Point",
          "coordinates": [
            431620,
            430901
          ]
        }
      },
      "locality": {
        "name": null
      },
      "town": {
        "name": "LEEDS"
      },
      "postcode": {
        "name": "LS10 2RU",
        "geometry": {
          "type": "Point",
          "coordinates": [
            431574,
            430983
          ]
        }
      }
    },
    {
      "saon": {
        "name": null
      },
      "paon": {
        "name": 133
      },
      "street": {
        "name": "TEST ROAD",
        "geometry": {
          "type": "Point",
          "coordinates": [
            431620,
            430901
          ]
        }
      },
      "locality": {
        "name": null
      },
      "town": {
        "name": "LEEDS"
      },
      "postcode": {
        "name": "LS10 2RU",
        "geometry": {
          "type": "Point",
          "coordinates": [
            431574,
            430983
          ]
        }
      }
    },
    {
      "saon": {
        "name": null
      },
      "paon": {
        "name": 134
      },
      "street": {
        "name": "TEST ROAD",
        "geometry": {
          "type": "Point",
          "coordinates": [
            431620,
            430901
          ]
        }
      },
      "locality": {
        "name": null
      },
      "town": {
        "name": "LEEDS"
      },
      "postcode": {
        "name": "LS10 2RU",
        "geometry": {
          "type": "Point",
          "coordinates": [
            431574,
            430983
          ]
        }
      }
    },
    {
      "saon": {
        "name": null
      },
      "paon": {
        "name": 135
      },
      "street": {
        "name": "TEST ROAD",
        "geometry": {
          "type": "Point",
          "coordinates": [
            431620,
            430901
          ]
        }
      },
      "locality": {
        "name": null
      },
      "town": {
        "name": "LEEDS"
      },
      "postcode": {
        "name": "LS10 2RU",
        "geometry": {
          "type": "Point",
          "coordinates": [
            431574,
            430983
          ]
        }
      }
    },
    {
      "saon": {
        "name": null
      },
      "paon": {
        "name": 136
      },
      "street": {
        "name": "TEST ROAD",
        "geometry": {
          "type": "Point",
          "coordinates": [
            431620,
            430901
          ]
        }
      },
      "locality": {
        "name": null
      },
      "town": {
        "name": "LEEDS"
      },
      "postcode": {
        "name": "LS10 2RU",
        "geometry": {
          "type": "Point",
          "coordinates": [
            431574,
            430983
          ]
        }
      }
    },
    {
      "saon": {
        "name": null
      },
      "paon": {
        "name": 137
      },
      "street": {
        "name": "TEST ROAD",
        "geometry": {
          "type": "Point",
          "coordinates": [
            431620,
            430901
          ]
        }
      },
      "locality": {
        "name": null
      },
      "town": {
        "name": "LEEDS"
      },
      "postcode": {
        "name": "LS10 2RU",
        "geometry": {
          "type": "Point",
          "coordinates": [
            431574,
            430983
          ]
        }
      }
    },
    {
      "saon": {
        "name": null
      },
      "paon": {
        "name": 138
      },
      "street": {
        "name": "TEST ROAD",
        "geometry": {
          "type": "Point",
          "coordinates": [
            431620,
            430901
          ]
        }
      },
      "locality": {
        "name": null
      },
      "town": {
        "name": "LEEDS"
      },
      "postcode": {
        "name": "LS10 2RU",
        "geometry": {
          "type": "Point",
          "coordinates": [
            431574,
            430983
          ]
        }
      }
    },
    {
      "saon": {
        "name": null
      },
      "paon": {
        "name": 139
      },
      "street": {
        "name": "TEST ROAD",
        "geometry": {
          "type": "Point",
          "coordinates": [
            431620,
            430901
          ]
        }
      },
      "locality": {
        "name": null
      },
      "town": {
        "name": "LEEDS"
      },
      "postcode": {
        "name": "LS10 2RU",
        "geometry": {
          "type": "Point",
          "coordinates": [
            431574,
            430983
          ]
        }
      }
    },
    {
      "saon": {
        "name": null
      },
      "paon": {
        "name": 140
      },
      "street": {
        "name": "TEST ROAD",
        "geometry": {
          "type": "Point",
          "coordinates": [
            431620,
            430901
          ]
        }
      },
      "locality": {
        "name": null
      },
      "town": {
        "name": "LEEDS"
      },
      "postcode": {
        "name": "LS10 2RU",
        "geometry": {
          "type": "Point",
          "coordinates": [
            431574,
            430983
          ]
        }
      }
    },
    {
      "saon": {
        "name": null
      },
      "paon": {
        "name": 141
      },
      "street": {
        "name": "TEST ROAD",
        "geometry": {
          "type": "Point",
          "coordinates": [
            431620,
            430901
          ]
        }
      },
      "locality": {
        "name": null
      },
      "town": {
        "name": "LEEDS"
      },
      "postcode": {
        "name": "LS10 2RU",
        "geometry": {
          "type": "Point",
          "coordinates": [
            431574,
            430983
          ]
        }
      }
    },
    {
      "saon": {
        "name": null
      },
      "paon": {
        "name": 142
      },
      "street": {
        "name": "TEST ROAD",
        "geometry": {
          "type": "Point",
          "coordinates": [
            431620,
            430901
          ]
        }
      },
      "locality": {
        "name": null
      },
      "town": {
        "name": "LEEDS"
      },
      "postcode": {
        "name": "LS10 2RU",
        "geometry": {
          "type": "Point",
          "coordinates": [
            431574,
            430983
          ]
        }
      }
    },
    {
      "saon": {
        "name": null
      },
      "paon": {
        "name": 143
      },
      "street": {
        "name": "TEST ROAD",
        "geometry": {
          "type": "Point",
          "coordinates": [
            431620,
            430901
          ]
        }
      },
      "locality": {
        "name": null
      },
      "town": {
        "name": "LEEDS"
      },
      "postcode": {
        "name": "LS10 2RU",
        "geometry": {
          "type": "Point",
          "coordinates": [
            431574,
            430983
          ]
        }
      }
    },
    {
      "saon": {
        "name": null
      },
      "paon": {
        "name": 144
      },
      "street": {
        "name": "TEST ROAD",
        "geometry": {
          "type": "Point",
          "coordinates": [
            431620,
            430901
          ]
        }
      },
      "locality": {
        "name": null
      },
      "town": {
        "name": "LEEDS"
      },
      "postcode": {
        "name": "LS10 2RU",
        "geometry": {
          "type": "Point",
          "coordinates": [
            431574,
            430983
          ]
        }
      }
    },
    {
      "saon": {
        "name": null
      },
      "paon": {
        "name": 145
      },
      "street": {
        "name": "TEST ROAD",
        "geometry": {
          "type": "Point",
          "coordinates": [
            431620,
            430901
          ]
        }
      },
      "locality": {
        "name": null
      },
      "town": {
        "name": "LEEDS"
      },
      "postcode": {
        "name": "LS10 2RU",
        "geometry": {
          "type": "Point",
          "coordinates": [
            431574,
            430983
          ]
        }
      }
    },
    {
      "saon": {
        "name": null
      },
      "paon": {
        "name": 146
      },
      "street": {
        "name": "TEST ROAD",
        "geometry": {
          "type": "Point",
          "coordinates": [
            431620,
            430901
          ]
        }
      },
      "locality": {
        "name": null
      },
      "town": {
        "name": "LEEDS"
      },
      "postcode": {
        "name": "LS10 2RU",
        "geometry": {
          "type": "Point",
          "coordinates": [
            431574,
            430983
          ]
        }
      }
    },
    {
      "saon": {
        "name": null
      },
      "paon": {
        "name": 147
      },
      "street": {
        "name": "TEST ROAD",
        "geometry": {
          "type": "Point",
          "coordinates": [
            431620,
            430901
          ]
        }
      },
      "locality": {
        "name": null
      },
      "town": {
        "name": "LEEDS"
      },
      "postcode": {
        "name": "LS10 2RU",
        "geometry": {
          "type": "Point",
          "coordinates": [
            431574,
            430983
          ]
        }
      }
    },
    {
      "saon": {
        "name": null
      },
      "paon": {
        "name": 148
      },
      "street": {
        "name": "TEST ROAD",
        "geometry": {
          "type": "Point",
          "coordinates": [
            431620,
            430901
          ]
        }
      },
      "locality": {
        "name": null
      },
      "town": {
        "name": "LEEDS"
      },
      "postcode": {
        "name": "LS10 2RU",
        "geometry": {
          "type": "Point",
          "coordinates": [
            431574,
            430983
          ]
        }
      }
    },
    {
      "saon": {
        "name": null
      },
      "paon": {
        "name": 149
      },
      "street": {
        "name": "TEST ROAD",
        "geometry": {
          "type": "Point",
          "coordinates": [
            431620,
            430901
          ]
        }
      },
      "locality": {
        "name": null
      },
      "town": {
        "name": "LEEDS"
      },
      "postcode": {
        "name": "LS10 2RU",
        "geometry": {
          "type": "Point",
          "coordinates": [
            431574,
            430983
          ]
        }
      }
    },
    {
      "saon": {
        "name": null
      },
      "paon": {
        "name": 150
      },
      "street": {
        "name": "TEST ROAD",
        "geometry": {
          "type": "Point",
          "coordinates": [
            431620,
            430901
          ]
        }
      },
      "locality": {
        "name": null
      },
      "town": {
        "name": "LEEDS"
      },
      "postcode": {
        "name": "LS10 2RU",
        "geometry": {
          "type": "Point",
          "coordinates": [
            431574,
            430983
          ]
        }
      }
    }
  ]
}