{
  "current_page": 2,
  "pages": 5,
  "total": 125,
  "addresses": [
    {
      "url": "http://ernest.openaddressesuk.org/addresses/1",
      "saon": {
        "name": null
      },
      "paon": {
        "name": 51
      },
      "street": {
        "name": "TEST ROAD",
        "geometry": {
          "type": "Point",
          "coordinates": [
            431620,
            430901
          ]
        }
      },
      "locality": {
        "name": null
      },
      "town": {
        "name": "LEEDS"
      },
      "postcode": {
        "name": "LS10 2RU",
        "geometry": {
          "type": "Point",
          "coordinates": [
            431574,
            430983
          ]
        }
      }
    },
    {
      "url": "http://ernest.openaddressesuk.org/addresses/1",
      "saon": {
        "name": null
      },
      "paon": {
        "name": 52
      },
      "street": {
        "name": "TEST ROAD",
        "geometry": {
          "type": "Point",
          "coordinates": [
            431620,
            430901
          ]
        }
      },
      "locality": {
        "name": null
      },
      "town": {
        "name": "LEEDS"
      },
      "postcode": {
        "name": "LS10 2RU",
        "geometry": {
          "type": "Point",
          "coordinates": [
            431574,
            430983
          ]
        }
      }
    },
    {
      "url": "http://ernest.openaddressesuk.org/addresses/1",
      "saon": {
        "name": null
      },
      "paon": {
        "name": 53
      },
      "street": {
        "name": "TEST ROAD",
        "geometry": {
          "type": "Point",
          "coordinates": [
            431620,
            430901
          ]
        }
      },
      "locality": {
        "name": null
      },
      "town": {
        "name": "LEEDS"
      },
      "postcode": {
        "name": "LS10 2RU",
        "geometry": {
          "type": "Point",
          "coordinates": [
            431574,
            430983
          ]
        }
      }
    },
    {
      "url": "http://ernest.openaddressesuk.org/addresses/1",
      "saon": {
        "name": null
      },
      "paon": {
        "name": 54
      },
      "street": {
        "name": "TEST ROAD",
        "geometry": {
          "type": "Point",
          "coordinates": [
            431620,
            430901
          ]
        }
      },
      "locality": {
        "name": null
      },
      "town": {
        "name": "LEEDS"
      },
      "postcode": {
        "name": "LS10 2RU",
        "geometry": {
          "type": "Point",
          "coordinates": [
            431574,
            430983
          ]
        }
      }
    },
    {
      "url": "http://ernest.openaddressesuk.org/addresses/1",
      "saon": {
        "name": null
      },
      "paon": {
        "name": 55
      },
      "street": {
        "name": "TEST ROAD",
        "geometry": {
          "type": "Point",
          "coordinates": [
            431620,
            430901
          ]
        }
      },
      "locality": {
        "name": null
      },
      "town": {
        "name": "LEEDS"
      },
      "postcode": {
        "name": "LS10 2RU",
        "geometry": {
          "type": "Point",
          "coordinates": [
            431574,
            430983
          ]
        }
      }
    },
    {
      "url": "http://ernest.openaddressesuk.org/addresses/1",
      "saon": {
        "name": null
      },
      "paon": {
        "name": 56
      },
      "street": {
        "name": "TEST ROAD",
        "geometry": {
          "type": "Point",
          "coordinates": [
            431620,
            430901
          ]
        }
      },
      "locality": {
        "name": null
      },
      "town": {
        "name": "LEEDS"
      },
      "postcode": {
        "name": "LS10 2RU",
        "geometry": {
          "type": "Point",
          "coordinates": [
            431574,
            430983
          ]
        }
      }
    },
    {
      "url": "http://ernest.openaddressesuk.org/addresses/1",
      "saon": {
        "name": null
      },
      "paon": {
        "name": 57
      },
      "street": {
        "name": "TEST ROAD",
        "geometry": {
          "type": "Point",
          "coordinates": [
            431620,
            430901
          ]
        }
      },
      "locality": {
        "name": null
      },
      "town": {
        "name": "LEEDS"
      },
      "postcode": {
        "name": "LS10 2RU",
        "geometry": {
          "type": "Point",
          "coordinates": [
            431574,
            430983
          ]
        }
      }
    },
    {
      "url": "http://ernest.openaddressesuk.org/addresses/1",
      "saon": {
        "name": null
      },
      "paon": {
        "name": 58
      },
      "street": {
        "name": "TEST ROAD",
        "geometry": {
          "type": "Point",
          "coordinates": [
            431620,
            430901
          ]
        }
      },
      "locality": {
        "name": null
      },
      "town": {
        "name": "LEEDS"
      },
      "postcode": {
        "name": "LS10 2RU",
        "geometry": {
          "type": "Point",
          "coordinates": [
            431574,
            430983
          ]
        }
      }
    },
    {
      "url": "http://ernest.openaddressesuk.org/addresses/1",
      "saon": {
        "name": null
      },
      "paon": {
        "name": 59
      },
      "street": {
        "name": "TEST ROAD",
        "geometry": {
          "type": "Point",
          "coordinates": [
            431620,
            430901
          ]
        }
      },
      "locality": {
        "name": null
      },
      "town": {
        "name": "LEEDS"
      },
      "postcode": {
        "name": "LS10 2RU",
        "geometry": {
          "type": "Point",
          "coordinates": [
            431574,
            430983
          ]
        }
      }
    },
    {
      "url": "http://ernest.openaddressesuk.org/addresses/1",
      "saon": {
        "name": null
      },
      "paon": {
        "name": 60
      },
      "street": {
        "name": "TEST ROAD",
        "geometry": {
          "type": "Point",
          "coordinates": [
            431620,
            430901
          ]
        }
      },
      "locality": {
        "name": null
      },
      "town": {
        "name": "LEEDS"
      },
      "postcode": {
        "name": "LS10 2RU",
        "geometry": {
          "type": "Point",
          "coordinates": [
            431574,
            430983
          ]
        }
      }
    },
    {
      "url": "http://ernest.openaddressesuk.org/addresses/1",
      "saon": {
        "name": null
      },
      "paon": {
        "name": 61
      },
      "street": {
        "name": "TEST ROAD",
        "geometry": {
          "type": "Point",
          "coordinates": [
            431620,
            430901
          ]
        }
      },
      "locality": {
        "name": null
      },
      "town": {
        "name": "LEEDS"
      },
      "postcode": {
        "name": "LS10 2RU",
        "geometry": {
          "type": "Point",
          "coordinates": [
            431574,
            430983
          ]
        }
      }
    },
    {
      "url": "http://ernest.openaddressesuk.org/addresses/1",
      "saon": {
        "name": null
      },
      "paon": {
        "name": 62
      },
      "street": {
        "name": "TEST ROAD",
        "geometry": {
          "type": "Point",
          "coordinates": [
            431620,
            430901
          ]
        }
      },
      "locality": {
        "name": null
      },
      "town": {
        "name": "LEEDS"
      },
      "postcode": {
        "name": "LS10 2RU",
        "geometry": {
          "type": "Point",
          "coordinates": [
            431574,
            430983
          ]
        }
      }
    },
    {
      "url": "http://ernest.openaddressesuk.org/addresses/1",
      "saon": {
        "name": null
      },
      "paon": {
        "name": 63
      },
      "street": {
        "name": "TEST ROAD",
        "geometry": {
          "type": "Point",
          "coordinates": [
            431620,
            430901
          ]
        }
      },
      "locality": {
        "name": null
      },
      "town": {
        "name": "LEEDS"
      },
      "postcode": {
        "name": "LS10 2RU",
        "geometry": {
          "type": "Point",
          "coordinates": [
            431574,
            430983
          ]
        }
      }
    },
    {
      "url": "http://ernest.openaddressesuk.org/addresses/1",
      "saon": {
        "name": null
      },
      "paon": {
        "name": 64
      },
      "street": {
        "name": "TEST ROAD",
        "geometry": {
          "type": "Point",
          "coordinates": [
            431620,
            430901
          ]
        }
      },
      "locality": {
        "name": null
      },
      "town": {
        "name": "LEEDS"
      },
      "postcode": {
        "name": "LS10 2RU",
        "geometry": {
          "type": "Point",
          "coordinates": [
            431574,
            430983
          ]
        }
      }
    },
    {
      "url": "http://ernest.openaddressesuk.org/addresses/1",
      "saon": {
        "name": null
      },
      "paon": {
        "name": 65
      },
      "street": {
        "name": "TEST ROAD",
        "geometry": {
          "type": "Point",
          "coordinates": [
            431620,
            430901
          ]
        }
      },
      "locality": {
        "name": null
      },
      "town": {
        "name": "LEEDS"
      },
      "postcode": {
        "name": "LS10 2RU",
        "geometry": {
          "type": "Point",
          "coordinates": [
            431574,
            430983
          ]
        }
      }
    },
    {
      "url": "http://ernest.openaddressesuk.org/addresses/1",
      "saon": {
        "name": null
      },
      "paon": {
        "name": 66
      },
      "street": {
        "name": "TEST ROAD",
        "geometry": {
          "type": "Point",
          "coordinates": [
            431620,
            430901
          ]
        }
      },
      "locality": {
        "name": null
      },
      "town": {
        "name": "LEEDS"
      },
      "postcode": {
        "name": "LS10 2RU",
        "geometry": {
          "type": "Point",
          "coordinates": [
            431574,
            430983
          ]
        }
      }
    },
    {
      "url": "http://ernest.openaddressesuk.org/addresses/1",
      "saon": {
        "name": null
      },
      "paon": {
        "name": 67
      },
      "street": {
        "name": "TEST ROAD",
        "geometry": {
          "type": "Point",
          "coordinates": [
            431620,
            430901
          ]
        }
      },
      "locality": {
        "name": null
      },
      "town": {
        "name": "LEEDS"
      },
      "postcode": {
        "name": "LS10 2RU",
        "geometry": {
          "type": "Point",
          "coordinates": [
            431574,
            430983
          ]
        }
      }
    },
    {
      "url": "http://ernest.openaddressesuk.org/addresses/1",
      "saon": {
        "name": null
      },
      "paon": {
        "name": 68
      },
      "street": {
        "name": "TEST ROAD",
        "geometry": {
          "type": "Point",
          "coordinates": [
            431620,
            430901
          ]
        }
      },
      "locality": {
        "name": null
      },
      "town": {
        "name": "LEEDS"
      },
      "postcode": {
        "name": "LS10 2RU",
        "geometry": {
          "type": "Point",
          "coordinates": [
            431574,
            430983
          ]
        }
      }
    },
    {
      "url": "http://ernest.openaddressesuk.org/addresses/1",
      "saon": {
        "name": null
      },
      "paon": {
        "name": 69
      },
      "street": {
        "name": "TEST ROAD",
        "geometry": {
          "type": "Point",
          "coordinates": [
            431620,
            430901
          ]
        }
      },
      "locality": {
        "name": null
      },
      "town": {
        "name": "LEEDS"
      },
      "postcode": {
        "name": "LS10 2RU",
        "geometry": {
          "type": "Point",
          "coordinates": [
            431574,
            430983
          ]
        }
      }
    },
    {
      "url": "http://ernest.openaddressesuk.org/addresses/1",
      "saon": {
        "name": null
      },
      "paon": {
        "name": 70
      },
      "street": {
        "name": "TEST ROAD",
        "geometry": {
          "type": "Point",
          "coordinates": [
            431620,
            430901
          ]
        }
      },
      "locality": {
        "name": null
      },
      "town": {
        "name": "LEEDS"
      },
      "postcode": {
        "name": "LS10 2RU",
        "geometry": {
          "type": "Point",
          "coordinates": [
            431574,
            430983
          ]
        }
      }
    },
    {
      "url": "http://ernest.openaddressesuk.org/addresses/1",
      "saon": {
        "name": null
      },
      "paon": {
        "name": 71
      },
      "street": {
        "name": "TEST ROAD",
        "geometry": {
          "type": "Point",
          "coordinates": [
            431620,
            430901
          ]
        }
      },
      "locality": {
        "name": null
      },
      "town": {
        "name": "LEEDS"
      },
      "postcode": {
        "name": "LS10 2RU",
        "geometry": {
          "type": "Point",
          "coordinates": [
            431574,
            430983
          ]
        }
      }
    },
    {
      "url": "http://ernest.openaddressesuk.org/addresses/1",
      "saon": {
        "name": null
      },
      "paon": {
        "name": 72
      },
      "street": {
        "name": "TEST ROAD",
        "geometry": {
          "type": "Point",
          "coordinates": [
            431620,
            430901
          ]
        }
      },
      "locality": {
        "name": null
      },
      "town": {
        "name": "LEEDS"
      },
      "postcode": {
        "name": "LS10 2RU",
        "geometry": {
          "type": "Point",
          "coordinates": [
            431574,
            430983
          ]
        }
      }
    },
    {
      "url": "http://ernest.openaddressesuk.org/addresses/1",
      "saon": {
        "name": null
      },
      "paon": {
        "name": 73
      },
      "street": {
        "name": "TEST ROAD",
        "geometry": {
          "type": "Point",
          "coordinates": [
            431620,
            430901
          ]
        }
      },
      "locality": {
        "name": null
      },
      "town": {
        "name": "LEEDS"
      },
      "postcode": {
        "name": "LS10 2RU",
        "geometry": {
          "type": "Point",
          "coordinates": [
            431574,
            430983
          ]
        }
      }
    },
    {
      "url": "http://ernest.openaddressesuk.org/addresses/1",
      "saon": {
        "name": null
      },
      "paon": {
        "name": 74
      },
      "street": {
        "name": "TEST ROAD",
        "geometry": {
          "type": "Point",
          "coordinates": [
            431620,
            430901
          ]
        }
      },
      "locality": {
        "name": null
      },
      "town": {
        "name": "LEEDS"
      },
      "postcode": {
        "name": "LS10 2RU",
        "geometry": {
          "type": "Point",
          "coordinates": [
            431574,
            430983
          ]
        }
      }
    },
    {
      "url": "http://ernest.openaddressesuk.org/addresses/1",
      "saon": {
        "name": null
      },
      "paon": {
        "name": 75
      },
      "street": {
        "name": "TEST ROAD",
        "geometry": {
          "type": "Point",
          "coordinates": [
            431620,
            430901
          ]
        }
      },
      "locality": {
        "name": null
      },
      "town": {
        "name": "LEEDS"
      },
      "postcode": {
        "name": "LS10 2RU",
        "geometry": {
          "type": "Point",
          "coordinates": [
            431574,
            430983
          ]
        }
      }
    }
  ]
}
